^C:\GIT_REPOS\MY_IN_INET\GIT_NASRETDIN\CPP\CPP\GET_SINGLE_ELEM_ARRAY\GET_SINGLE\GET_SINGLE\GET_SINGLE.CPP
C:\GIT_REPOS\MY_IN_INET\GIT_NASRETDIN\CPP\CPP\GET_SINGLE_ELEM_ARRAY\GET_SINGLE\GET_SINGLE\DEBUG\VC141.PDB
C:\GIT_REPOS\MY_IN_INET\GIT_NASRETDIN\CPP\CPP\GET_SINGLE_ELEM_ARRAY\GET_SINGLE\GET_SINGLE\DEBUG\VC141.IDB
C:\GIT_REPOS\MY_IN_INET\GIT_NASRETDIN\CPP\CPP\GET_SINGLE_ELEM_ARRAY\GET_SINGLE\GET_SINGLE\DEBUG\GET_SINGLE.OBJ
