^C:\GIT_REPOS\MY_IN_INET\GIT_NASRETDIN\CPP\CPP\USE_STATIC_LIB\ARGPARSERLIB\ARGPARSERLIB\CONSOLEAPPLICATION2\CONSOLEAPPLICATION2.CPP
C:\GIT_REPOS\MY_IN_INET\GIT_NASRETDIN\CPP\CPP\USE_STATIC_LIB\ARGPARSERLIB\ARGPARSERLIB\CONSOLEAPPLICATION2\DEBUG\VC141.PDB
C:\GIT_REPOS\MY_IN_INET\GIT_NASRETDIN\CPP\CPP\USE_STATIC_LIB\ARGPARSERLIB\ARGPARSERLIB\CONSOLEAPPLICATION2\DEBUG\VC141.IDB
C:\GIT_REPOS\MY_IN_INET\GIT_NASRETDIN\CPP\CPP\USE_STATIC_LIB\ARGPARSERLIB\ARGPARSERLIB\CONSOLEAPPLICATION2\DEBUG\CONSOLEAPPLICATION2.OBJ
