^C:\GIT_REPOS\MY_IN_INET\GIT_NASRETDIN\CPP\CPP\USE_STATIC_LIB\ARGPARSERLIB\CONSOLEAPPLICATION1\CONSOLEAPPLICATION1.CPP
C:\PROGRAM FILES (X86)\MICROSOFT VISUAL STUDIO\2017\ENTERPRISE\VC\TOOLS\MSVC\14.16.27023\BIN\HOSTX86\X86\1049\CLUI.DLL
C:\WINDOWS\GLOBALIZATION\SORTING\SORTDEFAULT.NLS
C:\WINDOWS\SYSTEM32\RSAENH.DLL
C:\WINDOWS\SYSTEM32\TZRES.DLL
