^C:\GIT_REPOS\MY_IN_INET\GIT_NASRETDIN\CPP\CPP\PRATA\CHAPTER3\MAIN.CPP
C:\GIT_REPOS\MY_IN_INET\GIT_NASRETDIN\CPP\CPP\PRATA\CHAPTER3\PROJECT1\PROJECT1\DEBUG\VC141.PDB
C:\GIT_REPOS\MY_IN_INET\GIT_NASRETDIN\CPP\CPP\PRATA\CHAPTER3\PROJECT1\PROJECT1\DEBUG\VC141.IDB
C:\GIT_REPOS\MY_IN_INET\GIT_NASRETDIN\CPP\CPP\PRATA\CHAPTER3\PROJECT1\PROJECT1\DEBUG\MAIN.OBJ
