^C:\GIT_REPOS\MY_IN_INET\GIT_NASRETDIN\CPP\CPP\PRATA\CHAPTER3\PROJECT1\PROJECT1\DEBUG\MAIN.OBJ
C:\GIT_REPOS\MY_IN_INET\GIT_NASRETDIN\CPP\CPP\PRATA\CHAPTER3\PROJECT1\DEBUG\PROJECT1.EXE
C:\GIT_REPOS\MY_IN_INET\GIT_NASRETDIN\CPP\CPP\PRATA\CHAPTER3\PROJECT1\DEBUG\PROJECT1.ILK
C:\GIT_REPOS\MY_IN_INET\GIT_NASRETDIN\CPP\CPP\PRATA\CHAPTER3\PROJECT1\DEBUG\PROJECT1.PDB
