^C:\USERS\RAY\SOURCE\REPOS\PASS_ARGS_VAL_LINK\PASS_ARGS_VAL_LINK\PASS_ARGS_VAL_LINK.CPP
C:\USERS\RAY\SOURCE\REPOS\PASS_ARGS_VAL_LINK\PASS_ARGS_VAL_LINK\DEBUG\VC141.PDB
C:\USERS\RAY\SOURCE\REPOS\PASS_ARGS_VAL_LINK\PASS_ARGS_VAL_LINK\DEBUG\VC141.IDB
C:\USERS\RAY\SOURCE\REPOS\PASS_ARGS_VAL_LINK\PASS_ARGS_VAL_LINK\DEBUG\PASS_ARGS_VAL_LINK.OBJ
