^C:\GIT_REPOS\MY_IN_INET\GIT_NASRETDIN\CPP\CPP\PRINT_MAP\PRINT_MAP\PRINT_MAP\DEBUG\PRINT_MAP.OBJ
C:\GIT_REPOS\MY_IN_INET\GIT_NASRETDIN\CPP\CPP\PRINT_MAP\PRINT_MAP\DEBUG\PRINT_MAP.EXE
C:\GIT_REPOS\MY_IN_INET\GIT_NASRETDIN\CPP\CPP\PRINT_MAP\PRINT_MAP\DEBUG\PRINT_MAP.ILK
C:\GIT_REPOS\MY_IN_INET\GIT_NASRETDIN\CPP\CPP\PRINT_MAP\PRINT_MAP\DEBUG\PRINT_MAP.PDB
