^C:\GIT_REPOS\MY_IN_INET\GIT_NASRETDIN\CPP\CPP\USE_STATIC_LIB\ARGPARSERLIB\ARGPARSERLIB\ARGPARSERLIB.CPP|C:\GIT_REPOS\MY_IN_INET\GIT_NASRETDIN\CPP\CPP\USE_STATIC_LIB\ARGPARSERLIB\ARGPARSERLIB\PCH.CPP
C:\GIT_REPOS\MY_IN_INET\GIT_NASRETDIN\CPP\CPP\USE_STATIC_LIB\ARGPARSERLIB\ARGPARSERLIB\DEBUG\ARGPARSERLIB.PDB
C:\GIT_REPOS\MY_IN_INET\GIT_NASRETDIN\CPP\CPP\USE_STATIC_LIB\ARGPARSERLIB\ARGPARSERLIB\DEBUG\PCH.OBJ
C:\GIT_REPOS\MY_IN_INET\GIT_NASRETDIN\CPP\CPP\USE_STATIC_LIB\ARGPARSERLIB\ARGPARSERLIB\DEBUG\ARGPARSERLIB.OBJ
^C:\GIT_REPOS\MY_IN_INET\GIT_NASRETDIN\CPP\CPP\USE_STATIC_LIB\ARGPARSERLIB\ARGPARSERLIB\PCH.CPP
C:\GIT_REPOS\MY_IN_INET\GIT_NASRETDIN\CPP\CPP\USE_STATIC_LIB\ARGPARSERLIB\ARGPARSERLIB\DEBUG\ARGPARSERLIB.PDB
^C:\GIT_REPOS\MY_IN_INET\GIT_NASRETDIN\CPP\CPP\USE_STATIC_LIB\ARGPARSERLIB\ARGPARSERLIB\ARGPARSERLIB.CPP
C:\GIT_REPOS\MY_IN_INET\GIT_NASRETDIN\CPP\CPP\USE_STATIC_LIB\ARGPARSERLIB\ARGPARSERLIB\DEBUG\ARGPARSERLIB.PDB
C:\GIT_REPOS\MY_IN_INET\GIT_NASRETDIN\CPP\CPP\USE_STATIC_LIB\ARGPARSERLIB\ARGPARSERLIB\DEBUG\ARGPARSERLIB.OBJ
