^C:\GIT_REPOS\MY_IN_INET\GIT_NASRETDIN\CPP\CPP\ARGPARCE\ARGPARSERLIB\ARGPARSERLIB.CPP
C:\GIT_REPOS\MY_IN_INET\GIT_NASRETDIN\CPP\CPP\ARGPARCE\ARGPARSERLIB\DEBUG\ARGPARSERLIB.PDB
C:\GIT_REPOS\MY_IN_INET\GIT_NASRETDIN\CPP\CPP\ARGPARCE\ARGPARSERLIB\DEBUG\ARGPARSERLIB.IDB
C:\GIT_REPOS\MY_IN_INET\GIT_NASRETDIN\CPP\CPP\ARGPARCE\ARGPARSERLIB\DEBUG\ARGPARSERLIB.OBJ
