^C:\GIT_REPOS\MY_IN_INET\GIT_NASRETDIN\CPP\CPP\CLASS_IN_STDLIB\STATICLIB1\PCH.CPP
C:\GIT_REPOS\MY_IN_INET\GIT_NASRETDIN\CPP\CPP\CLASS_IN_STDLIB\STATICLIB1\DEBUG\STATICLIB1.PCH
C:\GIT_REPOS\MY_IN_INET\GIT_NASRETDIN\CPP\CPP\CLASS_IN_STDLIB\STATICLIB1\DEBUG\STATICLIB1.PDB
C:\GIT_REPOS\MY_IN_INET\GIT_NASRETDIN\CPP\CPP\CLASS_IN_STDLIB\STATICLIB1\DEBUG\STATICLIB1.IDB
C:\GIT_REPOS\MY_IN_INET\GIT_NASRETDIN\CPP\CPP\CLASS_IN_STDLIB\STATICLIB1\DEBUG\PCH.OBJ
^C:\GIT_REPOS\MY_IN_INET\GIT_NASRETDIN\CPP\CPP\CLASS_IN_STDLIB\STATICLIB1\STATICLIB1.CPP
C:\GIT_REPOS\MY_IN_INET\GIT_NASRETDIN\CPP\CPP\CLASS_IN_STDLIB\STATICLIB1\DEBUG\STATICLIB1.PDB
C:\GIT_REPOS\MY_IN_INET\GIT_NASRETDIN\CPP\CPP\CLASS_IN_STDLIB\STATICLIB1\DEBUG\STATICLIB1.IDB
C:\GIT_REPOS\MY_IN_INET\GIT_NASRETDIN\CPP\CPP\CLASS_IN_STDLIB\STATICLIB1\DEBUG\STATICLIB1.OBJ
